-------------------------------------------------------------------------------
Test set: com.panisa.week6.BookBankTest
-------------------------------------------------------------------------------
Tests run: 1, Failures: 0, Errors: 0, Skipped: 0, Time elapsed: 0.001 s - in com.panisa.week6.BookBankTest
